Introduction to headliner • headliner
…
pixar_films |> 
  select(film, rotten_tomatoes, metacritic) |> 
  add_headline_column(
    x = rotten_tomatoes, 
    y = metacritic,
    headline = "{film} had a difference of {delta} points",
    return_cols = c(delta)
  ) |> 
  arrange(desc(delta))
#> # A tibble: 22 × 5
#>    film                rotten_tomatoes metacritic headline                 delta
#>    <chr>                         <dbl>      <dbl> <chr>                    <dbl>
#>  1 Onward                           88         61 Onward had a difference…    27
#>  2 Monsters, Inc.                   96         79 Monsters, Inc. had a di…    17
#>  3 Cars 2                           40         57 Cars 2 had a difference…    17
#>  4 Finding Dory                     94         77 Finding Dory had a diff…    17
#>  5 Coco                             97         81 Coco had a difference o…    16
#>  6 A Bug's Life                     92         77 A Bug's Life had a diff…    15
#>  7 Monsters University              80         65 Monsters University had…    15
#>  8 Incredibles 2                    93         80 Incredibles 2 had a dif…    13
#>  9 Toy Story 4                      97         84 Toy Story 4 had a diffe…    13
#> 10 Toy Story 2                     100         88 Toy Story 2 had a diffe…    12
#> # … with 12 more rows
…
