This data comes from pixarfilms package by Eric Leung (2022) — pixar_films • headliner
…
bo_domestic
box office gross amount in U.S. dollars (millions) for
U.S. and Canada

bo_intl
box office gross amount in U.S. dollars (millions) for other
territories

    Examples

pixar_films
#> # A tibble: 22 × 10
#>    order film      release_date  year rating run_time rotten_tomatoes metacritic
#>    <int> <chr>     <date>       <dbl> <chr>     <dbl>           <dbl>      <dbl>
#>  1     1 Toy Story 1995-11-22    1995 G            81             100         95
#>  2     2 A Bug's … 1998-11-25    1998 G            95              92         77
#>  3     3 Toy Stor… 1999-11-24    1999 G            92             100         88
#>  4     4 Monsters… 2001-11-02    2001 G            92              96         79
#>  5     5 Finding … 2003-05-30    2003 G           100              99         90
#>  6     6 The Incr… 2004-11-05    2004 PG          115              97         90
#>  7     7 Cars      2006-06-09    2006 G           117              74         73
#>  8     8 Ratatoui… 2007-06-29    2007 G           111              96         96
#>  9     9 WALL-E    2008-06-27    2008 G            98              95         95
#> 10    10 Up        2009-05-29    2009 PG           96              98         88
#> # … with 12 more rows, and 2 more variables: bo_domestic <dbl>, bo_intl <dbl>
…
